FRED.utf8.md
…
fredr_request(
  endpoint = "series/observations",
  series_id = "A006RL1Q225SBEA",
  observation_start = "2000-01-01",
  observation_end = "9999-01-01",
  frequency = "q",
  units = "pch") %>%
  mutate(value = as.numeric(value))%>%
  mutate(date = ymd(date))

## # A tibble: 78 x 4
##    realtime_start realtime_end date         value
##    <chr>          <chr>        <date>       <dbl>
##  1 2019-10-17     2019-10-17   2000-01-01  -125  
##  2 2019-10-17     2019-10-17   2000-04-01 -1025  
##  3 2019-10-17     2019-10-17   2000-07-01  -115. 
##  4 2019-10-17     2019-10-17   2000-10-01  -121. 
##  5 2019-10-17     2019-10-17   2001-01-01 -2212. 
##  6 2019-10-17     2019-10-17   2001-04-01  -104. 
##  7 2019-10-17     2019-10-17   2001-07-01 -1500  
##  8 2019-10-17     2019-10-17   2001-10-01   119. 
##  9 2019-10-17     2019-10-17   2002-01-01  -167. 
## 10 2019-10-17     2019-10-17   2002-04-01   -45.5
## #  with 68 more rows

#Real Private Nonresidential Fixed Investment
fredr_request(
  endpoint = "series/observations",
  series_id = "PNFIC1",
  observation_start = "2000-01-01",
  observation_end = "9999-01-01",
  frequency = "q",
  units = "pch") %>%
  mutate(value = as.numeric(value))%>%
  mutate(date = ymd(date))

## Warning: NAs introduced by coercion

## # A tibble: 78 x 4
##    realtime_start realtime_end date       value
##    <chr>          <chr>        <date>     <dbl>
##  1 2019-10-17     2019-10-17   2000-01-01 NA   
##  2 2019-10-17     2019-10-17   2000-04-01 NA   
##  3 2019-10-17     2019-10-17   2000-07-01 NA   
##  4 2019-10-17     2019-10-17   2000-10-01 NA   
##  5 2019-10-17     2019-10-17   2001-01-01 NA   
##  6 2019-10-17     2019-10-17   2001-04-01 NA   
##  7 2019-10-17     2019-10-17   2001-07-01 NA   
##  8 2019-10-17     2019-10-17   2001-10-01 NA   
##  9 2019-10-17     2019-10-17   2002-01-01 NA   
## 10 2019-10-17     2019-10-17   2002-04-01 -1.13
## #  with 68 more rows

#Real Government Consumption Expenditures and Gross Investment
fredr_request(
  endpoint = "series/observations",
  series_id = "GCEC1",
  observation_start = "2000-01-01",
  observation_end = "9999-01-01",
  frequency = "q",
  units = "pch") %>%
  mutate(value = as.numeric(value))%>%
  mutate(date = ymd(date))

## # A tibble: 78 x 4
##    realtime_start realtime_end date         value
##    <chr>          <chr>        <date>       <dbl>
##  1 2019-10-17     2019-10-17   2000-01-01 -0.708 
##  2 2019-10-17     2019-10-17   2000-04-01  0.978 
##  3 2019-10-17     2019-10-17   2000-07-01 -0.433 
##  4 2019-10-17     2019-10-17   2000-10-01  0.602 
##  5 2019-10-17     2019-10-17   2001-01-01  1.54  
##  6 2019-10-17     2019-10-17   2001-04-01  1.74  
##  7 2019-10-17     2019-10-17   2001-07-01 -0.0988
##  8 2019-10-17     2019-10-17   2001-10-01  1.65  
##  9 2019-10-17     2019-10-17   2002-01-01  1.73  
## 10 2019-10-17     2019-10-17   2002-04-01  0.768 
## #  with 68 more rows

#Real Net Exports of Goods and Services
fredr_request(
  endpoint = "series/observations",
  series_id = "NETEXC",
  observation_start = "2000-01-01",
  observation_end = "9999-01-01",
  frequency = "q",
  units = "pch") %>%
  mutate(value = as.numeric(value))%>%
  mutate(date = ymd(date))

## Warning: NAs introduced by coercion

## # A tibble: 78 x 4
##    realtime_start realtime_end date       value
##    <chr>          <chr>        <date>     <dbl>
##  1 2019-10-17     2019-10-17   2000-01-01 NA   
##  2 2019-10-17     2019-10-17   2000-04-01 NA   
##  3 2019-10-17     2019-10-17   2000-07-01 NA   
##  4 2019-10-17     2019-10-17   2000-10-01 NA   
##  5 2019-10-17     2019-10-17   2001-01-01 NA   
##  6 2019-10-17     2019-10-17   2001-04-01 NA   
##  7 2019-10-17     2019-10-17   2001-07-01 NA   
##  8 2019-10-17     2019-10-17   2001-10-01 NA   
##  9 2019-10-17     2019-10-17   2002-01-01 NA   
## 10 2019-10-17     2019-10-17   2002-04-01  4.52
## #  with 68 more rows

#Unemployment rate
fredr_request(
  endpoint = "series/observations",
  series_id = "UNRATE",
  observation_start = "2000-01-01",
  observation_end = "9999-01-01",
  frequency = "q",
  units = "pch") %>%
  mutate(value = as.numeric(value))%>%
  mutate(date = ymd(date))

## # A tibble: 79 x 4
##    realtime_start realtime_end date        value
##    <chr>          <chr>        <date>      <dbl>
##  1 2019-10-17     2019-10-17   2000-01-01 -0.820
##  2 2019-10-17     2019-10-17   2000-04-01 -2.48 
##  3 2019-10-17     2019-10-17   2000-07-01  1.69 
##  4 2019-10-17     2019-10-17   2000-10-01 -2.5  
##  5 2019-10-17     2019-10-17   2001-01-01  8.55 
##  6 2019-10-17     2019-10-17   2001-04-01  3.94 
##  7 2019-10-17     2019-10-17   2001-07-01  9.85 
##  8 2019-10-17     2019-10-17   2001-10-01 13.8  
##  9 2019-10-17     2019-10-17   2002-01-01  3.64 
## 10 2019-10-17     2019-10-17   2002-04-01  2.34 
## #  with 69 more rows

#Total Unemployed, Plus All Marginally Attached Workers Plus Total Employed Part Time for Economic Reasons, as a Percent of All Civilian Labor Force Plus All Marginally Attached Workers 
fredr_request(
  endpoint = "series/observations",
  series_id = "U6RATE",
  observation_start = "2000-01-01",
  observation_end = "9999-01-01",
  frequency = "q",
  units = "pch") %>%
  mutate(value = as.numeric(value))%>%
  mutate(date = ymd(date))

## # A tibble: 79 x 4
##    realtime_start realtime_end date        value
##    <chr>          <chr>        <date>      <dbl>
##  1 2019-10-17     2019-10-17   2000-01-01  0    
##  2 2019-10-17     2019-10-17   2000-04-01 -1.87 
##  3 2019-10-17     2019-10-17   2000-07-01  0.476
##  4 2019-10-17     2019-10-17   2000-10-01 -1.42 
##  5 2019-10-17     2019-10-17   2001-01-01  5.77 
##  6 2019-10-17     2019-10-17   2001-04-01  3.64 
##  7 2019-10-17     2019-10-17   2001-07-01  7.89 
##  8 2019-10-17     2019-10-17   2001-10-01 15.0  
##  9 2019-10-17     2019-10-17   2002-01-01  0.353
## 10 2019-10-17     2019-10-17   2002-04-01  1.06 
## #  with 69 more rows

#Civilian Labor Force Participation Rate: 25 to 54 years
fredr_request(
  endpoint = "series/observations",
  series_id = "LNS11300060",
  observation_start = "2000-01-01",
  observation_end = "9999-01-01",
  frequency = "q",
  units = "pch") %>%
  mutate(value = as.numeric(value))%>%
  mutate(date = ymd(date))

## # A tibble: 79 x 4
##    realtime_start realtime_end date         value
##    <chr>          <chr>        <date>       <dbl>
##  1 2019-10-17     2019-10-17   2000-01-01  0.317 
##  2 2019-10-17     2019-10-17   2000-04-01 -0.198 
##  3 2019-10-17     2019-10-17   2000-07-01 -0.475 
##  4 2019-10-17     2019-10-17   2000-10-01 -0.0398
##  5 2019-10-17     2019-10-17   2001-01-01  0.398 
##  6 2019-10-17     2019-10-17   2001-04-01 -0.476 
##  7 2019-10-17     2019-10-17   2001-07-01 -0.199 
##  8 2019-10-17     2019-10-17   2001-10-01  0.0798
##  9 2019-10-17     2019-10-17   2002-01-01 -0.0399
## 10 2019-10-17     2019-10-17   2002-04-01 -0.120 
## #  with 69 more rows

#Unemployment insurance claims
fredr_request(
  endpoint = "series/observations",
  series_id = "ICSA",
  observation_start = "2000-01-01",
  observation_end = "9999-01-01",
  frequency = "q",
  units = "pch") %>%
  mutate(value = as.numeric(value))%>%
  mutate(date = ymd(date))

## Warning: NAs introduced by coercion

## # A tibble: 80 x 4
##    realtime_start realtime_end date        value
##    <chr>          <chr>        <date>      <dbl>
##  1 2019-10-17     2019-10-17   2000-01-01  0.623
##  2 2019-10-17     2019-10-17   2000-04-01 -1.75 
##  3 2019-10-17     2019-10-17   2000-07-01  7.51 
##  4 2019-10-17     2019-10-17   2000-10-01  8.81 
##  5 2019-10-17     2019-10-17   2001-01-01 11.9  
##  6 2019-10-17     2019-10-17   2001-04-01  7.74 
##  7 2019-10-17     2019-10-17   2001-07-01  4.04 
##  8 2019-10-17     2019-10-17   2001-10-01  8.17 
##  9 2019-10-17     2019-10-17   2002-01-01 -8.45 
## 10 2019-10-17     2019-10-17   2002-04-01 -0.339
## #  with 70 more rows

#All Employees, Total Nonfarm payroll
fredr_request(
  endpoint = "series/observations",
  series_id = "PAYEMS",
  observation_start = "2000-01-01",
  observation_end = "9999-01-01",
  frequency = "q",
  units = "pch") %>%
  mutate(value = as.numeric(value))%>%
  mutate(date = ymd(date))

## # A tibble: 79 x 4
##    realtime_start realtime_end date         value
##    <chr>          <chr>        <date>       <dbl>
##  1 2019-10-17     2019-10-17   2000-01-01  0.590 
##  2 2019-10-17     2019-10-17   2000-04-01  0.592 
##  3 2019-10-17     2019-10-17   2000-07-01  0.190 
##  4 2019-10-17     2019-10-17   2000-10-01  0.203 
##  5 2019-10-17     2019-10-17   2001-01-01  0.156 
##  6 2019-10-17     2019-10-17   2001-04-01 -0.267 
##  7 2019-10-17     2019-10-17   2001-07-01 -0.300 
##  8 2019-10-17     2019-10-17   2001-10-01 -0.606 
##  9 2019-10-17     2019-10-17   2002-01-01 -0.323 
## 10 2019-10-17     2019-10-17   2002-04-01 -0.0953
## #  with 69 more rows

#Average Hourly Earnings of All Employees
fredr_request(
  endpoint = "series/observations",
  series_id = "CES0500000003",
  observation_start = "2000-01-01",
  observation_end = "9999-01-01",
  frequency = "m",
  units = "pch") %>%
  mutate(value = as.numeric(value))%>%
  mutate(date = ymd(date))

## Warning: NAs introduced by coercion

## # A tibble: 163 x 4
##    realtime_start realtime_end date         value
##    <chr>          <chr>        <date>       <dbl>
##  1 2019-10-17     2019-10-17   2006-03-01 NA     
##  2 2019-10-17     2019-10-17   2006-04-01  0.599 
##  3 2019-10-17     2019-10-17   2006-05-01 -0.0992
##  4 2019-10-17     2019-10-17   2006-06-01  0.447 
##  5 2019-10-17     2019-10-17   2006-07-01  0.346 
##  6 2019-10-17     2019-10-17   2006-08-01  0.0985
##  7 2019-10-17     2019-10-17   2006-09-01  0.443 
##  8 2019-10-17     2019-10-17   2006-10-01  0.147 
##  9 2019-10-17     2019-10-17   2006-11-01  0.245 
## 10 2019-10-17     2019-10-17   2006-12-01  0.390 
## #  with 153 more rows

#New private housing units authorized
fredr_request(
  endpoint = "series/observations",
  series_id = "PERMIT",
  observation_start = "2000-01-01",
  observation_end = "9999-01-01",
  frequency = "q",
  units = "pch") %>%
  mutate(value = as.numeric(value))%>%
  mutate(date = ymd(date))

## # A tibble: 79 x 4
##    realtime_start realtime_end date       value
##    <chr>          <chr>        <date>     <dbl>
##  1 2019-10-17     2019-10-17   2000-01-01  1.32
##  2 2019-10-17     2019-10-17   2000-04-01 -7.06
##  3 2019-10-17     2019-10-17   2000-07-01 -1.02
##  4 2019-10-17     2019-10-17   2000-10-01  1.50
##  5 2019-10-17     2019-10-17   2001-01-01  5.91
##  6 2019-10-17     2019-10-17   2001-04-01 -1.14
##  7 2019-10-17     2019-10-17   2001-07-01 -3.61
##  8 2019-10-17     2019-10-17   2001-10-01  2.49
##  9 2019-10-17     2019-10-17   2002-01-01  5.02
## 10 2019-10-17     2019-10-17   2002-04-01  0   
## #  with 69 more rows

#Real Government Consumption Expenditures and Gross Investment
fredr_request(
  endpoint = "series/observations",
  series_id = "GCEC1",
  observation_start = "2000-01-01",
  observation_end = "9999-01-01",
  frequency = "q",
  units = "pch") %>%
  mutate(value = as.numeric(value))%>%
  mutate(date = ymd(date))

## # A tibble: 78 x 4
##    realtime_start realtime_end date         value
##    <chr>          <chr>        <date>       <dbl>
##  1 2019-10-17     2019-10-17   2000-01-01 -0.708 
##  2 2019-10-17     2019-10-17   2000-04-01  0.978 
##  3 2019-10-17     2019-10-17   2000-07-01 -0.433 
##  4 2019-10-17     2019-10-17   2000-10-01  0.602 
##  5 2019-10-17     2019-10-17   2001-01-01  1.54  
##  6 2019-10-17     2019-10-17   2001-04-01  1.74  
##  7 2019-10-17     2019-10-17   2001-07-01 -0.0988
##  8 2019-10-17     2019-10-17   2001-10-01  1.65  
##  9 2019-10-17     2019-10-17   2002-01-01  1.73  
## 10 2019-10-17     2019-10-17   2002-04-01  0.768 
## #  with 68 more rows

#PCE core
fredr_request(
  endpoint = "series/observations",
  series_id = "PCEPI",
  observation_start = "2000-01-01",
  observation_end = "9999-01-01",
  frequency = "m",
  units = "pch") %>%
  mutate(value = as.numeric(value))%>%
  mutate(date = ymd(date))

## # A tibble: 236 x 4
##    realtime_start realtime_end date         value
##    <chr>          <chr>        <date>       <dbl>
##  1 2019-10-17     2019-10-17   2000-01-01  0.285 
##  2 2019-10-17     2019-10-17   2000-02-01  0.322 
##  3 2019-10-17     2019-10-17   2000-03-01  0.427 
##  4 2019-10-17     2019-10-17   2000-04-01 -0.0988
##  5 2019-10-17     2019-10-17   2000-05-01  0.0706
##  6 2019-10-17     2019-10-17   2000-06-01  0.327 
##  7 2019-10-17     2019-10-17   2000-07-01  0.241 
##  8 2019-10-17     2019-10-17   2000-08-01 -0.0115
##  9 2019-10-17     2019-10-17   2000-09-01  0.429 
## 10 2019-10-17     2019-10-17   2000-10-01  0.141 
## #  with 226 more rows
…
#Capacity Utilization 
fredr_request(
  endpoint = "series/observations",
  series_id = "TCU",
  observation_start = "2000-01-01",
  observation_end = "9999-01-01",
  frequency = "m",
  units = "pch") %>%
  mutate(value = as.numeric(value))%>%
  mutate(date = ymd(date))

## # A tibble: 237 x 4
##    realtime_start realtime_end date         value
##    <chr>          <chr>        <date>       <dbl>
##  1 2019-10-17     2019-10-17   2000-01-01 -0.329 
##  2 2019-10-17     2019-10-17   2000-02-01 -0.0474
##  3 2019-10-17     2019-10-17   2000-03-01  0.0201
##  4 2019-10-17     2019-10-17   2000-04-01  0.380 
##  5 2019-10-17     2019-10-17   2000-05-01 -0.165 
##  6 2019-10-17     2019-10-17   2000-06-01 -0.236 
##  7 2019-10-17     2019-10-17   2000-07-01 -0.476 
##  8 2019-10-17     2019-10-17   2000-08-01 -0.615 
##  9 2019-10-17     2019-10-17   2000-09-01  0.0622
## 10 2019-10-17     2019-10-17   2000-10-01 -0.615 
## #  with 227 more rows
…
